rts-su-2026-app3 (1).vcd
$version Generated by Wokwi.com $end
$date Sun, 28 Jun 2026 21:24:26 GMT $end
$timescale 1ns $end
$scope module logic $end
$var wire 1 ! BTN GPIO 18 / IN $end
$var wire 1 " GPIO 19 / OUT $end
$upscope $end
$enddefinitions $end
#0
0!
#0
1"
#100298494
1!
#100465013
0"
#4399013713
0!
#4399029063
1"
#4399035306
0"
#4549114219
1!
#5265782681
0!
#5265798031
1"
#5265804256
0"
#5482483344
1!
#6865787875
0!
#6865803225
1"
#6865809450
0"
#7115788513
1!
#8432492725
0!
#8432508075
1"
#8432514319
0"
#8599093463
1!
#10099098100
0!
#10099113450
1"
#10099119694
0"
#10115798100
1!
#12366205119
0!
#12366220469
1"
#12366226694
0"
#12532905663
1!
#13916210219
0!
#13916225569
1"
#13916231794
0"
#14066210725
1!
#15149547163
0!
#15149547163
1!
#15149562513
1"
#15149568756
0"
#16716218719
0!
#16716234069
1"
#16716240294
0"
#16899519313
1!
#18266223931
0!
#18266239281
1"
#18266245506
0"
#18466224569
1!
#20116229881
0!
#20128111519
1"
#20128117763
0"
#20149563306
1!
#21516234094
0!
#21516249444
1"
#21516255669
0"
#21732934738
1!
#23282939813
0!
#23282955163
1"
#23282961388
0"
#23449640281
1!
#25116245756
0!
#25128126394
1"
#25128132638
0"
#25149579106
1!
#26766150731
0!
#26766166081
1"
#26766172306
0"
#26916151163
1!
#28732856769
0!
#28732872119
1"
#28732878344
0"
#28866257094
1!
#30266261344
0!
#30266276694
1"
#30266282938
0"
#30432961863
1!
#32566368556
0!
#32566383906
1"
#32566390131
0"
#32733069150
1!
#34532974794
0!
#34532990144
1"
#34532996369
0"
#34682975156
1!
#35965345638
0!
#35965360988
1"
#35965367213
0"
#36115346081
1!
#38215352613
0!
#38215367963
1"
#38215374188
0"
#38381953088
1!
#40148691931
0!
#40148707281
1"
#40148713525
0"
#40215325431
1!
#42332131988
0!
#42332147338
1"
#42332153581
0"
#42498732506
1!
#44748739438
0!
#44748754788
1"
#44748761031
0"
#44965440100
1!
#46482111313
0!
#46482126663
1"
#46482132906
0"
#46665411863
1!
#48532117594
0!
#48532132944
1"
#48532139188
0"
#48682018194
1!
#50182089519
0!
#50182104869
1"
#50182111113
0"
#50382190150
1!
#52282196200
0!
#52282211550
1"
#52282217794
0"
#52448796719
1!
#54632203563
0!
#54632218913
1"
#54632225156
0"
#54815504088
1!
#56298775244
0!
#56298790594
1"
#56298796838
0"
#56465575731
1!
#58382181731
0!
#58382197081
1"
#58382203325
0"
#58582182338
1!
#60115487088
0!
#60128230856
1"
#60128237100
0"
#60148820531
1!
#61665591700
0!
#61665607050
1"
#61665613275
0"
#61832192106
1!
#63382296863
0!
#63382312213
1"
#63382318456
0"
#63565597388
1!
#65148835631
0!
#65148835631
1!
#65148850981
1"
#65148857225
0"
#66865474506
0!
#66865489856
1"
#66865496081
0"
#67032274988
1!
#68332179069
0!
#68332194419
1"
#68332200663
0"
#68465579600
1!
#69348882331
0!
#69348897681
1"
#69348903925
0"
#69498882844
1!
#70148918100
0!
#70148918100
1!
#70148933450
1"
#70148939694
0"
#71348955056
0!
#71348970406
1"
#71348976650
0"
#71498955556
1!
#72465658644
0!
#72465673994
1"
#72465680219
0"
#72632259181
1!
#73632362081
0!
#73632377431
1"
#73632383675
0"
#73748962588
1!
#74832366031
0!
#74832381381
1"
#74832387625
0"
#74998966569
1!
#75565634656
0!
#75565650006
1"
#75565656231
0"
#75765635200
1!
#77315740038
0!
#77315755388
1"
#77315761613
0"
#77482340481
1!
#78799044550
0!
#78799059900
1"
#78799066144
0"
#78982345194
1!
#80115748338
0!
#80128290600
1"
#80128296844
0"
#80149081706
1!
#81449152694
0!
#81449168044
1"
#81449174288
0"
#81599153150
1!
#83199158113
0!
#83199173463
1"
#83199179706
0"
#83365758606
1!
#84799163006
0!
#84799178356
1"
#84799184600
0"
#84965863575
1!
#85782465981
0!
#85782481331
1"
#85782487575
0"
#85965866569
1!
#87499171519
0!
#87499186869
1"
#87499193113
0"
#87682472194
1!
#89015776244
0!
#89015791594
1"
#89015797819
0"
#89182476794
1!
#90149213138
0!
#90149228488
1"
#90149234731
0"
#90282580181
1!
#91682584544
0!
#91682599894
1"
#91682606138
0"
#91849285019
1!
#93415889700
0!
#93415905050
1"
#93415911275
0"
#93582590306
1!
#95082594719
0!
#95082610069
1"
#95082616313
0"
#95115994769
1!
#96415965181
0!
#96415980531
1"
#96415986756
0"
#96582665650
1!
#98465971419
0!
#98465986769
1"
#98465992994
0"
#98632671931
1!
#100115976656
0!
#100128870963
1"
#100128877206
0"
#100149310063
1!
#101682748150
1!
#101682748150
1!
