rts-su-2026-app3.vcd
$version Generated by Wokwi.com $end
$date Sun, 28 Jun 2026 21:10:12 GMT $end
$timescale 1ns $end
$scope module logic $end
$var wire 1 ! BTN GPIO 18 / IN $end
$var wire 1 " GPIO 19 / OUT $end
$upscope $end
$enddefinitions $end
#0
0!
#0
0"
#80638494
1!
#6949048487
0!
#6949063837
1"
#6949070081
0"
#7100049612
1!
#8516758744
0!
#8516766731
1"
#8516772975
0"
#8733359994
1!
#10050068525
0!
#10050083875
1"
#10050090119
0"
#10266769750
1!
#11533378500
0!
#11533393850
1"
#11533400094
0"
#11733380000
1!
#12932389000
0!
#12932404350
1"
#12932410594
0"
#13133390500
1!
#14316699375
0!
#14316714725
1"
#14316720969
0"
#14533401000
1!
#15782410375
0!
#15782425725
1"
#15782431969
0"
#15983411875
1!
#17183420875
0!
#17183436225
1"
#17183442469
0"
#17365822250
1!
#18600131500
0!
#18600146850
1"
#18600153094
0"
#18766732750
1!
#20050141625
0!
#20050156975
1"
#20050163219
0"
#20266842750
1!
#21450049738
0!
#21450065088
1"
#21450071331
0"
#21666750738
1!
#22916558119
0!
#22916573469
1"
#22916579713
0"
#23133459494
1!
#24400167525
0!
#24400182875
1"
#24400189119
0"
#24582468625
1!
#25850077250
0!
#25850092600
1"
#25850098844
0"
#26033478625
1!
#27333388375
0!
#27333403725
1"
#27333409969
0"
#27483489500
1!
#28865799875
0!
#28865815225
1"
#28865821469
0"
#29050101250
1!
#30383511250
0!
#30383526600
1"
#30383532844
0"
#30566812625
1!
#31766521625
0!
#31766536975
1"
#31766543219
0"
#31950123000
1!
#33216832500
0!
#33216847850
1"
#33216854094
0"
#33400233875
1!
#34699643625
0!
#34699658975
1"
#34699665219
0"
#34932545375
1!
#36216754744
0!
#36216757981
1"
#36216764225
0"
#36465856375
1!
#37666765250
0!
#37666768013
1"
#37666774256
0"
#37883466775
1!
#39182576525
0!
#39182591875
1"
#39182598119
0"
#39383478025
1!
#40583587025
0!
#40583602375
1"
#40583608619
0"
#40783588525
1!
#42033597900
0!
#42033613250
1"
#42033619494
0"
#42200199150
1!
#43366107900
0!
#43366123250
1"
#43366129494
0"
#43599209650
1!
#44633617400
0!
#44633632750
1"
#44633638994
0"
#44850219025
1!
#46050228025
0!
#46050243375
1"
#46050249619
0"
#46250229525
1!
#47300237400
0!
#47300252750
1"
#47300258994
0"
#47450038525
1!
#48633547400
0!
#48633562750
1"
#48633568994
0"
#48833548900
1!
#50050258025
0!
#50050273375
1"
#50050279619
0"
#50233559400
1!
#51416868275
0!
#51416883625
1"
#51416889869
0"
#51583569525
1!
#52716878025
0!
#52716893375
1"
#52716899619
0"
#52883579275
1!
#54066888150
0!
#54066903500
1"
#54066909744
0"
#54233589400
1!
#55500198900
0!
#55500214250
1"
#55500220494
0"
#55667000150
1!
#56767008400
0!
#56767023750
1"
#56767029994
0"
#56933609650
1!
#58133618650
0!
#58133634000
1"
#58133640244
0"
#58316920025
1!
#59667030150
0!
#59667045500
1"
#59667051744
0"
#59833631400
1!
#61017040275
0!
#61017055625
1"
#61017061869
0"
#61233641900
1!
#62533651650
0!
#62533667000
1"
#62533673244
0"
#62700352900
1!
#63966962244
0!
#63966977594
1"
#63966983838
0"
#64133663494
1!
#65233571744
0!
#65233587094
1"
#65233593337
0"
#65416873119
1!
#66566981744
0!
#66566997094
1"
#66567003338
0"
#66733682994
1!
#67833191244
0!
#67833206594
1"
#67833212838
0"
#68016992619
1!
#69283602119
0!
#69283617469
1"
#69283623712
0"
#69433703244
1!
#70817013619
0!
#70817028969
1"
#70817035213
0"
#70983714869
1!
#72233724244
0!
#72233739594
1"
#72233745838
0"
#72433725744
1!
#73633634744
0!
#73633650094
1"
#73633656337
0"
#73817036119
1!
#74949644619
0!
#74949659969
1"
#74949666212
0"
#75117045869
1!
#76283754619
0!
#76283769969
1"
#76283776213
0"
#76467055994
1!
#77582664369
0!
#77582679719
1"
#77582685962
0"
#77767065744
1!
#79033675244
0!
#79033690594
1"
#79033696837
0"
#79200476494
1!
#80417085619
0!
#80417100969
1"
#80417107213
0"
#80566986744
1!
#81683795119
0!
#81683810469
1"
#81683816713
0"
#81867096494
1!
#83050405369
0!
#83050420719
1"
#83050426962
0"
#83233806744
1!
#88249310665
0!
#88249326015
1"
#88249332258
0"
#88382611665
1!
#89582620665
0!
#89582636015
1"
#89582642258
0"
#89766022040
1!
#91048331665
0!
#91048347015
1"
#91048353258
0"
#91215932915
1!
#92216040415
0!
#92216055765
1"
#92216062008
0"
#92399341775
1!
#93498749825
0!
#93498765175
1"
#93498771419
0"
#93665951075
1!
#94782659450
1!
#94782659450
1!
